Retrieve CHELSA Data Links — get_chelsa_links • ecokit
…
# Count the number of files per climate scenario, model, and year
dplyr::count(CHELSA_links, climate_scenario, climate_model, year)
#> # A tibble: 46 × 4
#>    climate_scenario climate_model year          n
#>    <chr>            <chr>         <chr>     <int>
#>  1 current          current       1981-2010    46
#>  2 ssp126           GFDL-ESM4     2011-2040    46
#>  3 ssp126           GFDL-ESM4     2041-2070    46
#>  4 ssp126           GFDL-ESM4     2071-2100    46
#>  5 ssp126           IPSL-CM6A-LR  2011-2040    46
#>  6 ssp126           IPSL-CM6A-LR  2041-2070    46
#>  7 ssp126           IPSL-CM6A-LR  2071-2100    46
#>  8 ssp126           MPI-ESM1-2-HR 2011-2040    46
#>  9 ssp126           MPI-ESM1-2-HR 2041-2070    46
#> 10 ssp126           MPI-ESM1-2-HR 2071-2100    46
#> # ℹ 36 more rows

CHELSA_links %>%
  dplyr::count(var_name, long_name, unit, scale, offset, explanation)
#> # A tibble: 46 × 7
#>    var_name long_name                       unit  scale offset explanation     n
#>    <chr>    <chr>                           <chr> <dbl>  <dbl> <chr>       <int>
#>  1 bio1     mean annual air temperature     °C      0.1  -273. mean annua…    46
#>  2 bio10    mean daily mean air temperatur… °C      0.1  -273. The warmes…    46
#>  3 bio11    mean daily mean air temperatur… °C      0.1  -273. The coldes…    46
#>  4 bio12    annual precipitation amount     kg m…   0.1     0  Accumulate…    46
#>  5 bio13    precipitation amount of the we… kg m…   0.1     0  The precip…    46
#>  6 bio14    precipitation amount of the dr… kg m…   0.1     0  The precip…    46
#>  7 bio15    precipitation seasonality       kg m…   0.1     0  The Coeffi…    46
#>  8 bio16    mean monthly precipitation amo… kg m…   0.1     0  The wettes…    46
#>  9 bio17    mean monthly precipitation amo… kg m…   0.1     0  The driest…    46
#> 10 bio18    mean monthly precipitation amo… kg m…   0.1     0  The warmes…    46
#> # ℹ 36 more rows
…
