…
``` r
file <- system.file("testdata", "culcita_dat.RData", package = "lme4")

# ---------------------------------------------------------
# loading RData using base::load
# ---------------------------------------------------------

(load(file))
#> [1] "culcita_dat"

ls()
#> [1] "culcita_dat" "file"       

tibble::tibble(culcita_dat)
#> # A tibble: 80 × 3
#>    block predation ttt  
#>    <fct>     <dbl> <fct>
#>  1 1             0 none 
#>  2 1             1 none 
#>  3 2             1 none 
#>  4 2             1 none 
#>  5 3             1 none 
#>  6 3             1 none 
#>  7 4             1 none 
#>  8 4             1 none 
#>  9 5             1 none 
#> 10 5             1 none 
#> # ℹ 70 more rows

# ---------------------------------------------------------
# Loading as custom object name
# ---------------------------------------------------------

NewObj <- load_as(file = file)

ls()
#> [1] "NewObj"      "culcita_dat" "file"       

print(tibble::tibble(NewObj))
#> # A tibble: 80 × 3
#>    block predation ttt  
#>    <fct>     <dbl> <fct>
#>  1 1             0 none 
#>  2 1             1 none 
#>  3 2             1 none 
#>  4 2             1 none 
#>  5 3             1 none 
#>  6 3             1 none 
#>  7 4             1 none 
#>  8 4             1 none 
#>  9 5             1 none 
#> 10 5             1 none 
#> # ℹ 70 more rows
…
