…
# save iris data as `iris2.RData` with `iris2` object name
save_as(
  object = tibble::tibble(iris), object_name = "iris2", out_path = out_file)

list.files(temp_dir, pattern = "^.+.RData")
#> [1] "iris2.RData"

# load the object to global environment. The data is loaded as `iris2`
(loaded_name <- load(out_file))
#> [1] "iris2"

ecokit::load_as(out_file)
#> # A tibble: 150 × 5
#>    Sepal.Length Sepal.Width Petal.Length Petal.Width Species
#>           <dbl>       <dbl>        <dbl>       <dbl> <fct>  
#>  1          5.1         3.5          1.4         0.2 setosa 
#>  2          4.9         3            1.4         0.2 setosa 
#>  3          4.7         3.2          1.3         0.2 setosa 
#>  4          4.6         3.1          1.5         0.2 setosa 
#>  5          5           3.6          1.4         0.2 setosa 
#>  6          5.4         3.9          1.7         0.4 setosa 
#>  7          4.6         3.4          1.4         0.3 setosa 
#>  8          5           3.4          1.5         0.2 setosa 
#>  9          4.4         2.9          1.4         0.2 setosa 
#> 10          4.9         3.1          1.5         0.1 setosa 
#> # ℹ 140 more rows
…
